#  M=N                  magma                      cublas
#-----------------------------------------------------------------------------------------
    10                    546.92                    91.457
    11                   640.852                   109.521
    12                   796.609                   126.926
    13                    920.18                   142.831
    14                  1074.861                   165.195
    15                  1235.712                   186.175
    16                  1425.374                   204.802
    17                  1181.666                   247.795
    18                  1351.898                   286.915
    19                  1485.141                    316.91
    20                  1636.529                   351.261
    21                  1776.747                   390.029
    22                  1932.524                    421.04
    23                  2078.139                   449.003
    24                  2206.286                   480.921
    25                  2228.377                   512.933
    26                  2398.478                   547.706
    27                  2523.681                   581.181
    28                   2740.82                    619.17
    29                    2830.9                   640.377
    30                  3051.252                   671.864
    31                   3145.19                    720.26
    32                  3365.167                   761.401
    33                   2838.15                   763.037
    34                  3157.159                   772.378
    35                  3296.061                   794.639
    36                  3495.046                    801.71
    37                  3590.953                   832.569
    38                  3745.762                   849.903
    39                  3813.835                   907.235
    40                  4069.915                   881.612
    41                  4091.057                   971.413
    42                  4287.518                   990.781
    43                  4368.691                  1007.197
    44                   4610.41                  1031.803
    45                  4500.704                  1069.888
    46                  4605.128                    1110.3
    47                   4734.66                  1131.922
    48                  5095.021                   1090.23
    49                  4153.732                  1215.854
    50                   4438.49                  1240.761
    51                  4493.362                  1284.535
    52                  4807.286                  1282.561
    53                   4726.54                  1343.513
    54                  4912.824                  1383.715
    55                  5016.924                   1431.62
    56                  5493.142                  1331.709
    57                  5057.666                  1515.929
    58                  5338.929                  1530.868
    59                  5273.528                  1582.925
    60                  5727.775                  1596.667
    61                  5481.953                  1668.742
    62                  5701.543                  1706.876
    63                   5753.14                  1760.937
    64                  6489.462                  2682.224
    65                  4666.875                  1579.598
    66                  4946.789                  1603.147
    67                   5027.77                  1645.541
    68                  5440.659                  1659.338
    69                  5235.569                  1689.072
    70                  5456.395                  1702.736
    71                   5498.79                  1734.535
    72                  6232.173                  1704.858
    73                  5599.304                  1808.374
    74                  5788.006                  1827.778
    75                  5791.288                  1866.017
    76                  6325.427                  1892.312
    77                  6036.878                   1935.75
    78                  6231.842                  1964.614
    79                  6246.934                  2005.296
    80                  7064.007                  1843.922
    81                  6815.363                   2082.08
    82                  7107.906                  2108.417
    83                  7140.328                   2133.01
    84                  7296.295                  2111.521
    85                  7316.357                  2177.266
    86                   7490.83                  2242.115
    87                  7502.977                  2311.371
    88                  7729.576                  2213.133
    89                  7402.408                  2373.383
    90                  7482.129                  2414.594
    91                  7521.911                   2462.76
    92                  7642.652                  2476.965
    93                  7645.282                  2534.129
    94                    7755.7                  2563.552
    95                  7850.606                   2614.73
    96                  8012.746                  2316.694
    97                  6550.687                  2765.537
    98                  6864.988                  2801.017
    99                   6553.68                  2857.732
   100                  7328.586                  2871.667
   101                   7306.14                  2915.699
   102                  7417.609                  2959.004
   103                  7485.995                   2986.92
   104                  7906.678                  2832.191
   105                  7742.949                   3067.49
   106                  7925.977                  3105.124
   107                  7995.251                  3134.825
   108                  8142.658                  3175.524
   109                  8138.294                  3206.664
   110                  8196.525                  3246.677
   111                  8259.309                  3269.024
   112                   8587.88                  2952.239
   113                  7242.621                  3315.008
   114                  7442.018                  3303.859
   115                  7391.891                  3335.298
   116                  7705.709                  3416.077
   117                  7513.501                  3427.707
   118                  7665.781                  3422.713
   119                  7651.457                  3474.487
   120                  8210.082                  3423.084
   121                  7643.533                    3537.4
   122                  7854.073                  3563.377
   123                  7737.722                  3609.637
   124                  8188.912                  3625.174
   125                   7756.08                  3631.484
   126                  7976.447                  3644.418
   127                  7969.653                  3652.788
   128                  8640.096                  4510.873
   129                  7107.379                  2376.335
   130                  7502.932                  2554.029
   131                   7403.88                  2567.384
   132                  8002.235                  2612.255
   133                  7578.015                   2620.16
   134                  7826.222                   2674.54
   135                  7696.592                  2694.343
   136                  8643.982                  2606.095
   137                  7730.628                  2784.896
   138                  8003.419                  2829.449
   139                  7856.331                   2842.91
   140                  8430.881                   2904.45
   141                  7982.139                  2945.657
   142                  8225.055                  2982.157
   143                  8075.648                  3021.653
   144                  9098.347                  2900.404
   145                  8716.658                  3061.689
   146                  8916.279                  3063.585
   147                   8910.47                   3131.11
   148                  9059.291                  3245.744
   149                  8971.943                  3251.703
   150                  9085.326                  3172.209
   151                  9068.294                  3272.141
   152                  9288.596                  3301.642
   153                   9168.24                  3429.094
   154                  9264.932                  3478.737
   155                  9246.914                  3510.352
   156                  9370.568                  3573.986
   157                  9290.036                  3584.049
   158                  9404.662                  3632.325
   159                  9390.334                  3678.824
   160                  9648.969                   3707.19
   161                  8983.761                  3675.164
   162                  9128.463                  3726.952
   163                  9071.299                  3703.558
   164                  9257.492                  3726.865
   165                  9172.055                  3780.737
   166                  9270.147                  3808.291
   167                  9301.136                  3823.416
   168                  9484.712                  3748.815
   169                  9366.398                  3876.834
   170                  9452.717                  3871.354
   171                  9445.136                  3839.263
   172                  9550.227                   3863.12
   173                  9534.266                   3957.58
   174                  9589.061                  3948.784
   175                  9565.524                  3910.412
   176                  9762.357                  3926.938
   177                  9271.431                  4048.541
   178                  9419.354                   4003.26
   179                  9294.065                  4062.721
   180                  9531.416                  4040.775
   181                  9454.864                   4112.24
   182                  9552.937                  4079.967
   183                  9531.167                  4139.375
   184                  9745.703                   4185.12
   185                  8845.156                  4180.961
   186                  8905.351                   4180.45
   187                  8997.127                  4193.739
   188                   9006.72                  4215.315
   189                  9045.656                   4225.55
   190                  9047.871                  4189.196
   191                  9105.439                   4261.74
   192                   9353.71                  4838.589
   193                  7286.198                  4128.704
   194                  7502.532                  4120.839
   195                  7428.738                  4111.119
   196                  7897.284                  4093.541
   197                  7547.498                  4132.802
   198                  7729.044                  4165.517
   199                  7627.166                  4124.439
   200                  8547.442                   4106.97
   201                  7691.047                  4111.737
   202                  7873.856                  4127.002
   203                  7745.684                  4132.007
   204                  8242.331                   4205.17
   205                  7811.537                  4191.898
   206                  8015.761                  4200.502
   207                  7893.927                  4179.834
   208                  8868.099                  4230.752
   209                  8935.532                  4230.761
   210                  9050.879                  4299.343
   211                  9011.268                   4264.19
   212                  9083.218                   4327.71
   213                  9054.634                  4295.672
   214                  9111.031                  4345.611
   215                  9101.529                   4363.95
   216                  9265.926                  4351.081
   217                  9148.354                  4386.059
   218                   9189.45                  4443.139
   219                   9192.65                  4446.446
   220                  9310.604                  4456.127
   221                  9242.857                  4438.369
   222                  9303.477                  4478.548
   223                  9332.334                  4501.755
   224                  9524.155                  4500.405
   225                  8374.432                   4495.02
   226                  8646.244                  4505.489
   227                  8494.252                  4484.215
   228                  9127.659                  4512.037
   229                  8585.878                  4529.725
   230                  8806.453                  4535.962
   231                  8641.882                  4535.279
   232                  9902.951                  4569.077
   233                  8676.772                  4562.938
   234                  8928.273                  4562.902
   235                  8747.586                  4504.729
   236                  9463.019                  4554.697
   237                  8815.249                  4569.721
   238                  9055.572                  4592.913
   239                   8902.68                  4518.037
   240                 10140.331                   4623.29
   241                  9012.413                  4477.226
   242                  9090.164                  4568.307
   243                  9113.656                  4558.118
   244                  9179.858                  4603.784
   245                  9154.679                  4566.954
   246                  9183.372                  4601.166
   247                  9066.925                  4587.971
   248                  9427.333                  4734.764
   249                  8789.517                  4638.604
   250                   8850.27                  4678.407
   251                  8831.739                  4626.825
   252                  8959.867                   4705.93
   253                   8860.13                  4662.086
   254                   8991.06                  4709.668
   255                  8960.553                  4638.856
   256                  9689.787                  5279.459
