#  M=N                  magma                      cublas
#-----------------------------------------------------------------------------------------
    10                   724.462                   102.249
    11                   946.451                   123.911
    12                  1145.672                     145.6
    13                    1354.2                   163.747
    14                   1453.76                   187.676
    15                  1697.951                   204.471
    16                  2002.413                   224.062
    17                  1472.119                   284.439
    18                  1660.909                   324.082
    19                  1834.039                   360.278
    20                  2024.672                   399.427
    21                  2163.755                   437.024
    22                  2373.445                   475.138
    23                  2467.425                   492.034
    24                  2641.104                   518.327
    25                  2630.274                    565.18
    26                   2765.32                   592.254
    27                  2916.933                   623.273
    28                  3102.866                   654.116
    29                  3239.504                   667.671
    30                  3415.496                   704.763
    31                  3539.274                   754.712
    32                  3759.407                   797.328
    33                  3331.753                   772.163
    34                  3628.055                   782.286
    35                  3708.833                   799.224
    36                  3918.227                   785.877
    37                  4011.281                   843.855
    38                  4242.829                   866.025
    39                  4336.616                   913.904
    40                  4589.595                   870.608
    41                  4505.329                   975.377
    42                  4674.911                   991.208
    43                  4772.167                  1010.024
    44                  5038.567                  1021.534
    45                  4975.112                  1058.303
    46                  5175.628                  1086.444
    47                  5244.203                  1112.259
    48                  5555.303                  1044.244
    49                  4417.752                  1173.912
    50                  4565.982                  1203.797
    51                  4703.861                   1235.12
    52                  5030.591                   1238.35
    53                   4959.75                  1306.158
    54                  5137.038                  1333.292
    55                  5184.186                  1382.561
    56                  5600.155                  1328.117
    57                  5365.993                  1469.919
    58                  5565.899                  1486.505
    59                   5588.06                  1527.776
    60                  5991.387                   1544.79
    61                  5805.977                  1616.754
    62                  6019.551                  1650.379
    63                  6030.455                  1697.654
    64                  6715.758                  2671.733
    65                  5320.203                  1523.704
    66                  5583.029                  1549.114
    67                  5638.019                  1581.322
    68                  6097.591                  1592.905
    69                   5889.62                   1624.57
    70                  6106.898                  1632.454
    71                  6105.192                  1673.408
    72                  6833.133                  1646.661
    73                  6239.012                  1748.795
    74                  6441.925                  1767.545
    75                  6410.513                  1812.151
    76                  6902.433                  1837.538
    77                  6604.627                  1879.992
    78                  6798.562                  1913.462
    79                  6742.113                  1944.845
    80                  7486.269                   1786.35
    81                  6847.406                  2019.191
    82                  7095.772                  2050.982
    83                  7134.167                   2078.55
    84                  7309.461                  2054.053
    85                  7260.241                  2123.022
    86                  7366.443                   2183.41
    87                  7452.286                  2235.124
    88                   7699.79                  2151.212
    89                  7628.488                  2296.617
    90                  7697.495                  2316.283
    91                  7760.767                  2370.811
    92                  7915.969                  2397.965
    93                  7908.103                  2445.537
    94                  7980.459                  2469.874
    95                  7974.859                  2532.316
    96                  8482.901                  2249.563
    97                  6677.972                  2655.093
    98                   6829.66                  2672.624
    99                  6985.604                  2722.043
   100                  7295.943                  2736.651
   101                  7333.156                  2772.739
   102                    7495.1                  2812.117
   103                  7566.223                  2843.796
   104                  7924.443                  2726.495
   105                  7719.457                  2905.939
   106                  7730.763                  2926.398
   107                  7748.082                  2950.538
   108                  7976.484                  2991.535
   109                  7979.398                  3023.122
   110                  8011.777                  3058.338
   111                  8082.835                  3072.272
   112                  8415.404                  2769.835
   113                  7667.798                  3131.503
   114                  7954.063                  3120.832
   115                  7847.378                  3162.395
   116                  8201.935                  3235.788
   117                  8004.097                  3243.947
   118                  8149.948                  3243.572
   119                  8060.721                  3293.368
   120                  8592.264                  3259.959
   121                  8092.873                   3343.17
   122                  8283.613                  3393.023
   123                   8172.61                  3393.521
   124                  8615.269                  3411.626
   125                  8295.047                  3434.618
   126                  8494.543                  3474.553
   127                  8399.031                  3456.645
   128                  9168.566                  4277.952
   129                  8159.775                  2297.215
   130                  8394.262                  2457.584
   131                  8266.356                  2461.423
   132                  8704.414                  2483.367
   133                  8417.016                  2504.165
   134                  8569.808                  2565.421
   135                   8506.21                  2566.632
   136                  9057.828                  2507.908
   137                  8547.542                  2650.262
   138                  8740.902                  2691.933
   139                  8646.434                  2703.757
   140                  9012.268                  2767.245
   141                  8737.534                  2801.332
   142                  8921.029                  2832.716
   143                  8790.311                  2871.277
   144                  9329.501                  2763.254
   145                  8585.468                  2901.519
   146                  8744.711                  2891.005
   147                   8727.57                  2958.156
   148                  8869.294                  3065.937
   149                   8818.59                  3068.866
   150                  8913.073                    3028.7
   151                  8881.567                  3074.764
   152                    9071.9                  3119.934
   153                  8969.891                  3224.797
   154                  9047.562                  3269.685
   155                  9042.046                  3296.797
   156                  9164.941                  3366.062
   157                  9127.164                   3375.18
   158                   9190.16                  3419.698
   159                  9176.454                   3452.04
   160                  9640.859                  3448.288
   161                   8775.34                  3446.888
   162                  8908.016                   3509.09
   163                  8872.032                  3483.487
   164                  9045.842                  3528.611
   165                  8964.386                  3551.463
   166                  9064.707                   3588.53
   167                  9040.789                  3579.103
   168                  9235.011                  3539.844
   169                  9097.989                  3644.437
   170                   9201.17                  3636.281
   171                  9194.076                  3618.637
   172                  9277.446                  3648.721
   173                  9229.565                  3737.556
   174                  9326.724                  3714.011
   175                  9316.733                  3669.214
   176                  9462.547                  3700.775
   177                  9193.212                  3809.411
   178                  9288.417                  3766.915
   179                  9267.929                  3820.108
   180                  9389.365                  3805.975
   181                  9293.928                  3859.325
   182                  9364.167                  3830.655
   183                  9359.907                  3883.725
   184                  9508.016                  3935.296
   185                  9434.998                  3925.515
   186                  9496.349                  3933.015
   187                  9485.163                  3945.169
   188                  9597.168                  3964.321
   189                   9510.45                   3970.12
   190                  9546.721                  3998.663
   191                  9541.055                  4004.335
   192                 10014.305                  4686.534
   193                  8394.934                  3869.869
   194                  8627.296                  3858.199
   195                  8531.687                  3861.288
   196                  8974.878                  3850.307
   197                  8651.343                    3887.5
   198                   8843.91                  3911.023
   199                  8754.438                  3889.901
   200                  9437.051                  3879.764
   201                  8785.369                  3862.345
   202                  8984.767                  3895.608
   203                  8869.136                  3923.876
   204                  9285.147                  3970.303
   205                  8926.285                  3948.009
   206                  9101.094                  3962.007
   207                  8985.096                  3968.673
   208                  9655.992                  4001.884
   209                  9301.602                  3999.032
   210                  9411.339                  4042.913
   211                   9387.75                  4010.089
   212                  9491.868                  4082.089
   213                  9446.054                  4056.309
   214                  9495.859                  4094.352
   215                   9509.59                  4113.458
   216                  9586.778                   4102.91
   217                  9526.311                  4131.523
   218                  9591.585                   4172.96
   219                  9593.546                  4187.576
   220                  9690.186                   4193.45
   221                   9663.35                  4181.103
   222                  9696.421                  4211.172
   223                  9681.042                  4233.022
   224                  10016.87                  4226.242
   225                  9284.471                    4234.1
   226                  9490.082                  4246.159
   227                  9376.916                  4227.451
   228                  9753.944                  4244.487
   229                  9464.587                  4265.708
   230                  9589.378                  4267.866
   231                  9490.612                  4272.514
   232                 10044.058                  4314.213
   233                  9485.786                  4295.512
   234                  9649.227                  4280.222
   235                  9534.365                  4239.959
   236                  9866.319                  4285.746
   237                  9547.524                  4301.301
   238                  9684.318                  4320.049
   239                  9565.634                  4251.877
   240                 10181.023                  4353.831
   241                  9634.836                  4228.603
   242                  9673.052                  4323.975
   243                   9719.71                   4285.53
   244                  9757.667                  4347.022
   245                  9704.848                  4305.208
   246                  9798.095                  4362.093
   247                  9801.087                   4305.49
   248                   9791.74                  4445.324
   249                  9814.816                  4387.433
   250                  9884.173                  4401.163
   251                  9851.952                  4367.216
   252                   9926.53                  4474.922
   253                  9885.489                  4402.616
   254                  9921.489                  4446.214
   255                  9917.937                  4362.543
   256                 10146.073                  5176.772
