#   N                    magma                     cublas
#-----------------------------------------------------------------------------------------
    10                   100.658                    48.478
    11                   139.104                    66.497
    12                   200.572                    90.502
    13                   259.016                   109.364
    14                   321.741                   136.456
    15                   388.491                   158.121
    16                   498.385                   193.822
    17                   490.027                   199.474
    18                   620.031                   248.434
    19                   704.141                   300.363
    20                   796.094                   339.404
    21                    925.84                   397.596
    22                  1072.281                   463.372
    23                  1223.693                   527.059
    24                  1367.978                  1019.313
    25                  1496.247                   593.815
    26                   1641.82                    655.34
    27                   1792.78                   738.208
    28                  1955.272                    798.39
    29                  2073.825                   885.606
    30                  2249.467                   930.438
    31                  2392.642                  1049.971
    32                  2631.528                   2081.37
    33                   2196.61                  1127.045
    34                  2435.992                   1224.31
    35                  2542.939                  1327.317
    36                  2792.587                  1413.298
    37                  2926.209                  1562.403
    38                  3164.246                  1613.765
    39                  3376.595                  1783.782
    40                   3604.85                  3207.739
    41                  3477.904                   1891.55
    42                  3722.952                  2019.619
    43                  3822.949                  2112.351
    44                  4048.425                  2236.804
    45                  4138.138                   2340.65
    46                  4440.137                  2544.762
    47                  4514.818                  2682.433
    48                  5027.222                  4678.277
    49                   3710.74                  2699.318
    50                  3946.205                  2931.269
    51                  4089.826                  2911.482
    52                  4288.816                  3029.127
    53                  4455.864                  3161.602
    54                  4570.951                  3293.725
    55                  4857.049                  3459.516
    56                  5068.308                  5379.459
    57                  5016.752                  3407.467
    58                  5188.847                   3549.72
    59                  5356.519                  3668.839
    60                  5666.911                  3746.087
    61                  5346.537                  3900.597
    62                   5517.87                  3969.264
    63                  5642.401                  4120.445
    64                  6775.795                   7271.01
    65                  4985.849                  3419.149
    66                  5225.709                  3545.592
    67                  5449.772                  3703.909
    68                  5728.265                  3846.998
    69                   5866.69                  4022.676
    70                  6109.187                   4133.02
    71                  6237.032                  4194.305
    72                  6526.114                  5943.827
    73                  6730.095                  4446.317
    74                  6929.115                  4606.907
    75                  7151.051                  4765.151
    76                  7444.441                  4908.939
    77                  7551.225                  5095.071
    78                  7813.593                  5290.894
    79                  7997.119                  5405.055
    80                  8558.816                  7681.646
    81                  7649.295                  5608.291
    82                   7966.52                  5760.258
    83                  8160.719                  5913.728
    84                  8385.473                  6090.363
    85                  8593.555                  6241.992
    86                  8888.779                  6431.039
    87                  9076.655                  6660.494
    88                  9501.542                  9064.179
    89                  9453.079                  6737.968
    90                  9724.392                  6917.629
    91                  9951.211                  7060.856
    92                 10249.938                  7259.065
    93                 10461.402                  7393.596
    94                 10769.856                  7649.776
    95                 10964.236                  7909.197
    96                 11585.908                 11050.426
    97                  8264.218                   8121.15
    98                  8607.304                  8186.185
    99                  8658.771                  8435.825
   100                  9117.202                  8541.162
   101                  9053.316                   8662.53
   102                  9297.872                  8835.205
   103                  9388.466                  8895.116
   104                 10088.989                 11739.946
   105                  9721.979                  9231.176
   106                 10028.459                  9408.699
   107                 10094.897                  9622.513
   108                 10546.974                  9761.831
   109                 10480.098                  9904.895
   110                 10786.276                 10160.632
   111                 10955.393                 10333.068
   112                 12319.488                 13599.851
   113                 10122.326                 10481.477
   114                  10347.93                 10670.263
   115                 10509.421                 10694.795
   116                 10817.751                  10957.65
   117                 10812.555                 11076.523
   118                 10988.559                  11175.14
   119                 11097.768                 11302.252
   120                 11679.739                 15005.379
   121                 11339.163                 11416.865
   122                 11603.125                 11545.869
   123                 11785.886                 11653.042
   124                  12141.66                 12071.472
   125                 12097.146                 12063.483
   126                 12367.025                 12381.074
   127                 12548.107                 12393.463
   128                 14812.564                 19490.715
